[gd_scene load_steps=2 format=2]

[ext_resource path="res://Dialog.gd" type="Script" id=1]

[node name="Dialog" type="Label"]
anchor_right = 1.0
anchor_bottom = 1.0
align = 1
valign = 1
script = ExtResource( 1 )
__meta__ = {
"_edit_use_anchors_": false
}

[node name="Tween" type="Tween" parent="."]
